[
  {
    "id": "1",
    "title": "My first post",
    "excerpt": "This is my first post with more content inside",
    "image": "https://vignette.wikia.nocookie.net/dogeshibe/images/1/1d/29513201_2093062984053920_1254481581414956582_n.jpg/revision/latest?cb=20180520045137",
    "date": "29/09/2019"
  },
  {
    "id": "2",
    "title": "My second post",
    "excerpt": "This is my second post with more content inside.This is my second post with more content inside.This is my second post with more content inside.This is my second post with more content inside.This is my second post with more content inside.This is my second post with more content inside.This is my second post with more content inside.This is my second post with more content inside.This is my second post with more content inside.This is my second post with more content inside.This is my second post with more content inside.This is my second post with more content inside.This is my second post with more content inside.This is my second post with more content inside.This is my second post with more content inside.",
    "image": "https://vignette.wikia.nocookie.net/dogeshibe/images/1/1d/29513201_2093062984053920_1254481581414956582_n.jpg/revision/latest?cb=20180520045137",
    "date": "29/09/2019"
  },
  {
    "id": "3",
    "title": "My third post",
    "excerpt": "This is my third post with more content inside",
    "image": "https://vignette.wikia.nocookie.net/dogeshibe/images/1/1d/29513201_2093062984053920_1254481581414956582_n.jpg/revision/latest?cb=20180520045137",
    "date": "29/09/2019"
  },
  {
    "id": "4",
    "title": "My fourth post",
    "excerpt": "This is my fourth post with more content inside",
    "image": "https://vignette.wikia.nocookie.net/dogeshibe/images/1/1d/29513201_2093062984053920_1254481581414956582_n.jpg/revision/latest?cb=20180520045137",
    "date": "29/09/2019"
  },
  {
    "id": "5",
    "title": "My fifth post",
    "excerpt": "This is my fifth post with more content inside",
    "image": "https://vignette.wikia.nocookie.net/dogeshibe/images/1/1d/29513201_2093062984053920_1254481581414956582_n.jpg/revision/latest?cb=20180520045137",
    "date": "29/09/2019"
  },
  {
    "id": "6",
    "title": "My sixth post",
    "excerpt": "This is my sixth post with more content inside",
    "image": "https://vignette.wikia.nocookie.net/dogeshibe/images/1/1d/29513201_2093062984053920_1254481581414956582_n.jpg/revision/latest?cb=20180520045137",
    "date": "29/09/2019"
  }
]
